
<svg version="1.1" xmlns="http://www.w3.org/2000/svg" xmlns:xlink="http://www.w3.org/1999/xlink">
	<polygon fill="#FFC42A" points="0.424,90.246 0.424,90.246 43.205,90.26 43.205,-0.603 0.424,21.991"/>
	<path d="M123.95,61.491c0,2.174,0.003,4.345,0,6.518c-0.002,0.378-0.014,0.701,0.532,0.685
		c1.51-0.042,3.031,0.044,4.529-0.097c2.22-0.212,4.029-1.203,4.962-3.347c0.837-1.92,0.89-3.937,0.475-5.97
		c-0.579-2.84-2.529-4.608-5.415-4.831c-1.455-0.113-2.923-0.064-4.384-0.134c-0.586-0.03-0.714,0.193-0.707,0.731
		C123.964,57.194,123.95,59.343,123.95,61.491 M119.052,50.093c0.057-0.026,0.078-0.048,0.099-0.046
		c4.1,0.032,8.233-0.47,12.283,0.355c4.115,0.839,7.051,3.589,7.957,7.943c0.604,2.893,0.465,5.717-0.684,8.466
		c-1.157,2.77-3.218,4.603-6.039,5.454c-1.512,0.459-3.137,0.68-4.721,0.745c-2.78,0.118-5.571,0.037-8.358,0.037
		c-0.162,0-0.327-0.023-0.537-0.039V50.093z"/>
	<path d="M75.788,60.838c1.593,0,3.096,0.005,4.603-0.005c0.399,0,0.807,0.004,1.197-0.074
		c1.964-0.385,2.953-1.553,2.872-3.345c-0.078-1.715-1.184-2.847-3.151-2.996c-1.671-0.124-3.351-0.062-5.029-0.095
		c-0.373-0.009-0.5,0.145-0.494,0.5c0.012,0.899,0.002,1.796,0.002,2.694V60.838z M91.329,73.045
		c-1.947,0-3.706,0.009-5.467-0.016c-0.168-0.002-0.376-0.173-0.493-0.325c-1.869-2.402-3.713-4.825-5.599-7.214
		c-0.21-0.263-0.639-0.459-0.984-0.491c-0.772-0.071-2.987-0.034-2.987-0.034s-0.028,0.185-0.021,0.696
		c0.023,2.15,0.009,4.299,0.009,6.449v0.887h-4.896V50.053C71.084,50.032,71.245,50,71.407,50
		c3.377,0.007,6.754-0.012,10.131,0.039c1.694,0.026,3.3,0.477,4.778,1.348c2.003,1.18,2.962,3.004,3.123,5.242
		c0.072,0.996-0.011,2.038-0.231,3.015c-0.478,2.137-1.902,3.524-3.875,4.38c-0.252,0.111-0.507,0.226-0.835,0.373
		C86.765,67.267,88.991,70.086,91.329,73.045"/>
	<path d="M104.722,55.015c-1.227,3.197-2.443,6.366-3.683,9.603h7.395
		C107.184,61.384,105.959,58.212,104.722,55.015 M116.76,73.045c-1.645,0-3.202,0.016-4.757-0.019
		c-0.173-0.005-0.415-0.276-0.496-0.477c-0.443-1.067-0.858-2.143-1.252-3.229c-0.148-0.408-0.353-0.581-0.818-0.579
		c-3.118,0.023-6.237,0.023-9.356,0.005c-0.479-0.005-0.707,0.15-0.871,0.609c-0.399,1.106-0.86,2.194-1.325,3.275
		c-0.074,0.171-0.297,0.396-0.454,0.397c-1.556,0.032-3.111,0.018-4.776,0.018c0.534-1.332,1.019-2.573,1.524-3.808
		c2.544-6.216,5.098-12.429,7.627-18.652c0.178-0.442,0.399-0.606,0.874-0.595c1.395,0.03,2.791,0.016,4.182,0.007
		c0.357-0.002,0.593,0.057,0.756,0.457c2.99,7.381,6.002,14.757,9.008,22.133C116.669,72.693,116.692,72.81,116.76,73.045"/>
	<path d="M27.996,73.056h-4.914V50.068c1.514,0,2.992-0.012,4.47,0.018c0.154,0.004,0.337,0.226,0.452,0.387
		c3.063,4.278,6.118,8.567,9.178,12.848c0.366,0.514,0.742,1.017,1.201,1.648V50.096h4.866v22.995
		c-1.489,0-2.967,0.014-4.444-0.021c-0.171-0.004-0.367-0.261-0.498-0.442c-3.282-4.591-6.555-9.185-9.835-13.775
		c-0.113-0.161-0.251-0.306-0.477-0.574V73.056z"/>
	<rect x="11.577" y="50.095" width="4.864" height="22.941"/>
	<path d="M65.833,60.46c-0.002-0.161-0.037-0.454-0.343-0.454c-0.125-0.004-0.251-0.002-0.374-0.005v-0.005h-0.613
		c-1.095-0.012-2.199-0.011-3.351-0.011v0.011h-3.971v4.451h3.962c0,1.157,0.005,2.31,0.03,3.37
		c-0.021,1.242-0.477,1.245-1.261,1.39c-0.578,0.104-1.235,0.11-2.183,0.032c-2.007-0.166-3.847-0.804-5.216-2.386
		c-1.206-1.39-1.565-3.079-1.68-4.868c-0.215-3.42,1.671-6.283,4.926-7.297c3.11-0.97,6.09-0.521,8.96,0.918
		c0.155,0.078,0.318,0.141,0.586,0.258c0-1.358-0.025-2.616,0.014-3.868c0.016-0.525-0.141-0.791-0.639-0.977
		c-3.156-1.182-6.378-1.59-9.699-0.857c-2.45,0.544-4.64,1.597-6.322,3.506c-2.796,3.178-3.303,6.963-2.531,10.921
		c0.88,4.522,3.778,7.27,8.185,8.453c3.775,1.014,8.381,0.592,11.055-0.828c0.205-0.078,0.457-0.38,0.457-0.578
		C65.856,68.152,65.854,63.945,65.833,60.46"/>
</svg>
